{
  "variants": {
    "type=bottom": {
      "model": "premium_wood:block/maple_slab"
    },
    "type=double": {
      "model": "premium_wood:block/maple_planks"
    },
    "type=top": {
      "model": "premium_wood:block/maple_slab_top"
    }
  }
}