{
  "variants": {
    "axis=x": {
      "model": "premium_wood:block/stripped_maple_wood",
      "x": 90,
      "y": 90
    },
    "axis=y": {
      "model": "premium_wood:block/stripped_maple_wood"
    },
    "axis=z": {
      "model": "premium_wood:block/stripped_maple_wood",
      "x": 90
    }
  }
}