{
  "parent": "minecraft:recipes/root",
  "criteria": {
    "has_the_recipe": {
      "conditions": {
        "recipe": "premium_wood:chest_backup"
      },
      "trigger": "minecraft:recipe_unlocked"
    },
    "impossible": {
      "trigger": "minecraft:impossible"
    }
  },
  "requirements": [
    [
      "has_the_recipe",
      "impossible"
    ]
  ],
  "rewards": {
    "recipes": [
      "premium_wood:chest_backup"
    ]
  }
}