{
  "parent": "minecraft:recipes/root",
  "criteria": {
    "has_plank": {
      "conditions": {
        "items": [
          {
            "items": "minecraft:birch_planks"
          }
        ]
      },
      "trigger": "minecraft:inventory_changed"
    },
    "has_the_recipe": {
      "conditions": {
        "recipe": "premium_wood:birch_framed_glass"
      },
      "trigger": "minecraft:recipe_unlocked"
    }
  },
  "requirements": [
    [
      "has_the_recipe",
      "has_plank"
    ]
  ],
  "rewards": {
    "recipes": [
      "premium_wood:birch_framed_glass"
    ]
  }
}