{
  "values": [
    "premium_wood:maple_framed_glass",
    "premium_wood:tiger_framed_glass",
    "premium_wood:silverbell_framed_glass",
    "premium_wood:purple_heart_framed_glass",
    "premium_wood:willow_framed_glass",
    "premium_wood:magic_framed_glass"
  ]
}