{
  "parent": "minecraft:block/door_bottom_right_open",
  "render_type": "minecraft:cutout",
  "textures": {
    "bottom": "premium_wood:block/magic_door_bottom",
    "top": "premium_wood:block/magic_door_top"
  }
}