{
  "parent": "minecraft:block/door_top_left_open",
  "render_type": "minecraft:cutout",
  "textures": {
    "bottom": "premium_wood:block/maple_door_bottom",
    "top": "premium_wood:block/maple_door_top"
  }
}