{
  "parent": "minecraft:block/stairs",
  "textures": {
    "bottom": "premium_wood:block/purple_heart_planks",
    "side": "premium_wood:block/purple_heart_planks",
    "top": "premium_wood:block/purple_heart_planks"
  }
}