{
  "parent": "minecraft:block/door_top_right",
  "render_type": "minecraft:cutout",
  "textures": {
    "bottom": "premium_wood:block/tiger_door_bottom",
    "top": "premium_wood:block/tiger_door_top"
  }
}