{
  "values": [
    "premium_wood:maple_hanging_sign",
    "premium_wood:tiger_hanging_sign",
    "premium_wood:silverbell_hanging_sign",
    "premium_wood:purple_heart_hanging_sign",
    "premium_wood:willow_hanging_sign",
    "premium_wood:magic_hanging_sign"
  ]
}