{
  "type": "minecraft:crafting_shaped",
  "category": "misc",
  "key": {
    "#": "premium_wood:magic_planks"
  },
  "pattern": [
    "##",
    "##"
  ],
  "result": {
    "count": 1,
    "id": "premium_wood:magic_crafting_table"
  }
}