{
  "type": "minecraft:crafting_shaped",
  "category": "redstone",
  "group": "wooden_pressure_plate",
  "key": {
    "#": "premium_wood:magic_planks"
  },
  "pattern": [
    "##"
  ],
  "result": {
    "count": 1,
    "id": "premium_wood:magic_pressure_plate"
  }
}