{
  "type": "minecraft:crafting_shaped",
  "category": "misc",
  "group": "wooden_sign",
  "key": {
    "#": "premium_wood:silverbell_planks",
    "X": "minecraft:stick"
  },
  "pattern": [
    "###",
    "###",
    " X "
  ],
  "result": {
    "count": 3,
    "id": "premium_wood:silverbell_sign"
  }
}