{
  "type": "minecraft:crafting_shaped",
  "category": "building",
  "group": "bark",
  "key": {
    "#": "premium_wood:stripped_magic_log"
  },
  "pattern": [
    "##",
    "##"
  ],
  "result": {
    "count": 3,
    "id": "premium_wood:stripped_magic_wood"
  }
}