{
  "type": "minecraft:crafting_shapeless",
  "category": "building",
  "ingredients": [
    "#c:glass_blocks/colorless",
    "minecraft:warped_planks"
  ],
  "result": {
    "count": 2,
    "id": "premium_wood:warped_framed_glass"
  }
}