{
  "type": "minecraft:crafting_shaped",
  "category": "redstone",
  "group": "wooden_door",
  "key": {
    "#": "premium_wood:willow_planks"
  },
  "pattern": [
    "##",
    "##",
    "##"
  ],
  "result": {
    "count": 3,
    "id": "premium_wood:willow_door"
  }
}