{
  "type": "minecraft:crafting_shaped",
  "category": "building",
  "group": "wooden_stairs",
  "key": {
    "#": "premium_wood:willow_planks"
  },
  "pattern": [
    "#  ",
    "## ",
    "###"
  ],
  "result": {
    "count": 4,
    "id": "premium_wood:willow_stairs"
  }
}