{
  "values": [
    "premium_wood:maple_leaves",
    "premium_wood:tiger_leaves",
    "premium_wood:silverbell_leaves",
    "premium_wood:purple_heart_leaves",
    "premium_wood:willow_leaves",
    "premium_wood:magic_leaves",
    "premium_wood:apple_leaves"
  ]
}