{
  "values": [
    "#premium_wood:maple_logs",
    "#premium_wood:tiger_logs",
    "#premium_wood:silverbell_logs",
    "#premium_wood:purple_heart_logs",
    "#premium_wood:willow_logs",
    "#premium_wood:magic_logs"
  ]
}