{
  "values": [
    "premium_wood:maple_sapling",
    "premium_wood:tiger_sapling",
    "premium_wood:silverbell_sapling",
    "premium_wood:purple_heart_sapling",
    "premium_wood:willow_sapling",
    "premium_wood:magic_sapling",
    "premium_wood:apple_sapling"
  ]
}