{
  "values": [
    "premium_wood:maple_trapdoor",
    "premium_wood:tiger_trapdoor",
    "premium_wood:silverbell_trapdoor",
    "premium_wood:purple_heart_trapdoor",
    "premium_wood:willow_trapdoor",
    "premium_wood:magic_trapdoor"
  ]
}